<?xml version="1.0" encoding="UTF-8" standalone="no"?>
<!-- Created with Inkscape (http://www.inkscape.org/) -->

<svg
   xmlns:dc="http://purl.org/dc/elements/1.1/"
   xmlns:cc="http://creativecommons.org/ns#"
   xmlns:rdf="http://www.w3.org/1999/02/22-rdf-syntax-ns#"
   xmlns:svg="http://www.w3.org/2000/svg"
   xmlns="http://www.w3.org/2000/svg"
   xmlns:sodipodi="http://sodipodi.sourceforge.net/DTD/sodipodi-0.dtd"
   xmlns:inkscape="http://www.inkscape.org/namespaces/inkscape"
   width="210mm"
   height="297mm"
   id="svg3930"
   version="1.1"
   inkscape:version="0.48.5 r10040"
   sodipodi:docname="redeonion-comparada.svg">
  <defs
     id="defs3932" />
  <sodipodi:namedview
     id="base"
     pagecolor="#ffffff"
     bordercolor="#666666"
     borderopacity="1.0"
     inkscape:pageopacity="0.0"
     inkscape:pageshadow="2"
     inkscape:zoom="7.2407734"
     inkscape:cx="750.00065"
     inkscape:cy="467.10446"
     inkscape:document-units="px"
     inkscape:current-layer="layer1"
     showgrid="false"
     inkscape:window-width="1366"
     inkscape:window-height="710"
     inkscape:window-x="0"
     inkscape:window-y="0"
     inkscape:window-maximized="1" />
  <metadata
     id="metadata3935">
    <rdf:RDF>
      <cc:Work
         rdf:about="">
        <dc:format>image/svg+xml</dc:format>
        <dc:type
           rdf:resource="http://purl.org/dc/dcmitype/StillImage" />
        <dc:title></dc:title>
      </cc:Work>
    </rdf:RDF>
  </metadata>
  <g
     inkscape:label="Camada 1"
     inkscape:groupmode="layer"
     id="layer1">
    <path
       sodipodi:type="arc"
       style="fill:#ffffff;fill-opacity:1;stroke:#000000;stroke-width:77.14287567;stroke-miterlimit:4;stroke-opacity:1;stroke-dasharray:none"
       id="path3938"
       sodipodi:cx="-454.28571"
       sodipodi:cy="475.21933"
       sodipodi:rx="77.14286"
       sodipodi:ry="77.14286"
       d="m -377.14285,475.21933 a 77.14286,77.14286 0 1 1 -154.28572,0 77.14286,77.14286 0 1 1 154.28572,0 z"
       transform="matrix(0.00648148,0,0,0.00648148,700.01588,577.35349)" />
    <path
       transform="matrix(116.66666,0,0,116.66666,62756.47,-54286.989)"
       d="m -377.14285,475.21933 a 77.14286,77.14286 0 1 1 -154.28572,0 77.14286,77.14286 0 1 1 154.28572,0 z"
       sodipodi:ry="77.14286"
       sodipodi:rx="77.14286"
       sodipodi:cy="475.21933"
       sodipodi:cx="-454.28571"
       id="path3940"
       style="fill:#ffffff;fill-opacity:1;stroke:#000000;stroke-width:0.00428571;stroke-miterlimit:4;stroke-opacity:1;stroke-dasharray:none"
       sodipodi:type="arc" />
    <rect
       style="fill:none;fill-opacity:1;stroke:#550000;stroke-width:0.50000000000000000;stroke-miterlimit:4;stroke-opacity:1;stroke-dasharray:none"
       id="rect4469"
       width="152.73438"
       height="93.164062"
       x="674.80469"
       y="520.52625"
       inkscape:export-filename="/home/lucastx/garagem/codingrights/cpiciber/cpiciber-soccivil/imagens/redeonion-comparada.png"
       inkscape:export-xdpi="791.80908"
       inkscape:export-ydpi="791.80908" />
    <path
       sodipodi:type="arc"
       style="fill:#000000;fill-opacity:1;stroke:#000000;stroke-width:0.00428571;stroke-miterlimit:4;stroke-opacity:1;stroke-dasharray:none"
       id="path4471"
       sodipodi:cx="-454.28571"
       sodipodi:cy="475.21933"
       sodipodi:rx="77.14286"
       sodipodi:ry="77.14286"
       d="m -377.14285,475.21933 a 77.14286,77.14286 0 1 1 -154.28572,0 77.14286,77.14286 0 1 1 154.28572,0 z"
       transform="matrix(3.2438894,0,0,3.2438894,11230.127,-386.29596)" />
    <rect
       style="fill:#cccccc;fill-opacity:1;stroke:#cccccc;stroke-width:0.048764;stroke-miterlimit:4;stroke-opacity:1;stroke-dasharray:none"
       id="rect4473"
       width="9042.9766"
       height="0.47595489"
       x="810.19159"
       y="534.13184"
       inkscape:transform-center-x="4487.579"
       inkscape:transform-center-y="-283.22445"
       transform="matrix(0.99801431,0.06298763,-0.06297611,0.99801503,0,0)" />
    <g
       id="g4489"
       transform="matrix(0.34594009,0.03904372,-0.03904372,0.34594009,583.30205,380.39802)">
      <path
         inkscape:connector-curvature="0"
         d="m 632.80447,490.64009 c -0.0895,2.95933 -0.076,5.92064 -0.0868,8.881 -0.009,1.95304 -0.0126,3.90607 -0.0129,5.85913 0,0 -3.6659,1.86787 -3.6659,1.86787 l 0,0 c -3.3e-4,-1.94866 -0.004,-3.8973 -0.0129,-5.84595 -0.0106,-2.93088 0.004,-5.86277 -0.0867,-8.7926 0,0 3.86527,-1.96945 3.86527,-1.96945 z"
         id="path4477"
         style="fill:#cccccc;fill-opacity:1;stroke:#cccccc;stroke-width:0;stroke-miterlimit:4;stroke-opacity:1;stroke-dasharray:none" />
      <path
         inkscape:connector-curvature="0"
         d="m 633.58376,495.33954 c 4.32272,0.10901 8.64757,0.10743 12.97142,0.12179 4.59526,-0.0905 9.18983,-0.21152 13.78492,-0.31131 0,0 -3.11684,2.27533 -3.11684,2.27533 l 0,0 c -4.6199,0.1092 -9.23862,0.25968 -13.85885,0.35421 -4.43562,0.0146 -8.87211,0.0151 -13.30669,0.12179 0,0 3.52604,-2.56181 3.52604,-2.56181 z"
         id="path4479"
         style="fill:#cccccc;fill-opacity:1;stroke:#cccccc;stroke-width:0;stroke-miterlimit:4;stroke-opacity:1;stroke-dasharray:none" />
      <path
         inkscape:connector-curvature="0"
         d="m 713.31917,496.24365 c 4.74181,0.0928 9.48513,0.11074 14.22776,0.13196 4.97798,0.0134 9.95598,0.0109 14.93397,0.0115 0,0 -3.10633,2.25688 -3.10633,2.25688 l 0,0 c -4.98858,6.7e-4 -9.97716,-0.002 -14.96573,0.0115 -4.86372,0.0215 -9.72807,0.0408 -14.59103,0.13196 0,0 3.50136,-2.54388 3.50136,-2.54388 z"
         id="path4481"
         style="fill:#cccccc;fill-opacity:1;stroke:#cccccc;stroke-width:0;stroke-miterlimit:4;stroke-opacity:1;stroke-dasharray:none" />
      <path
         inkscape:connector-curvature="0"
         d="m 742.1058,488.74929 c 0.37362,2.66397 0.49763,5.35619 0.5982,8.04536 0.29764,3.28489 -0.20763,6.54743 -0.26366,9.82407 0,0 -2.82977,1.56188 -2.82977,1.56188 l 0,0 c 0.0374,-3.27562 0.607,-6.53368 0.29642,-9.81948 -0.11378,-2.65325 -0.22438,-5.32629 -0.74632,-7.92955 0,0 2.94513,-1.68228 2.94513,-1.68228 z"
         id="path4483"
         style="fill:#cccccc;fill-opacity:1;stroke:#cccccc;stroke-width:0;stroke-miterlimit:4;stroke-opacity:1;stroke-dasharray:none" />
      <text
         sodipodi:linespacing="125%"
         id="text4485"
         y="503.00659"
         x="666.43237"
         style="font-size:18.9864254px;font-style:normal;font-variant:normal;font-weight:normal;font-stretch:normal;line-height:125%;letter-spacing:0px;word-spacing:0px;fill:#000000;fill-opacity:1;stroke:none;font-family:Permanent Marker;-inkscape-font-specification:Permanent Marker"
         xml:space="preserve"><tspan
           style="fill:#cccccc"
           y="503.00659"
           x="666.43237"
           id="tspan4487"
           sodipodi:role="line">raio</tspan></text>
    </g>
    <g
       transform="matrix(0.19633545,0,0,0.29719274,691.55357,347.06873)"
       id="g3963">
      <path
         style="fill:#ff2a2a;stroke:#ff2a2a;stroke-width:0.83833313;stroke-opacity:1"
         id="path3965"
         d="m 378.75728,708.19294 c -3.20786,-1.78752 -5.83091,-4.36346 -8.39942,-6.94512 -2.06145,-2.02983 -3.8805,-4.30775 -5.1908,-6.89744 -0.6789,-1.34179 -0.94669,-2.16733 -1.47319,-3.56683 -0.78758,-2.23257 -1.14311,-4.56814 -1.41851,-6.90773 0,0 5.13055,-2.68579 5.13055,-2.68579 l 0,0 c 0.23878,2.30535 0.53637,4.61069 1.29149,6.81579 0.52808,1.44169 0.7332,2.11763 1.41265,3.50311 1.25254,2.55405 2.96452,4.83954 5.00393,6.81881 2.62746,2.52705 5.31491,5.12456 8.75603,6.5012 0,0 -5.11273,3.364 -5.11273,3.364 z"
         inkscape:connector-curvature="0" />
      <path
         style="fill:#ff2a2a;stroke:#ff2a2a;stroke-width:0.83833313;stroke-opacity:1"
         id="path3967"
         d="m 379.67567,708.833 c -3.67874,-0.64041 -7.43828,-0.67775 -11.16223,-0.78137 -2.79932,-0.10021 -5.60037,-0.0281 -8.39974,0.0202 0,0 4.3845,-3.19778 4.3845,-3.19778 l 0,0 c 2.82658,-0.0544 5.65419,-0.12367 8.4813,-0.0521 3.91807,0.0651 7.84849,0.0973 11.74907,0.5061 0,0 -5.0529,3.50495 -5.0529,3.50495 z"
         inkscape:connector-curvature="0" />
      <path
         style="fill:#ff2a2a;stroke:#ff2a2a;stroke-width:0.83833313;stroke-opacity:1"
         id="path3969"
         d="m 379.48645,706.92224 c 0.13353,-2.29919 0.0907,-4.60279 0.18253,-6.90345 0.14165,-2.10844 0.46114,-4.20118 0.76275,-6.29143 0,0 5.19738,-2.55606 5.19738,-2.55606 l 0,0 c -0.29096,2.06196 -0.57406,4.12796 -0.7294,6.20534 -0.0676,2.24756 -0.0412,4.50001 0.0822,6.74549 0,0 -5.49551,2.80011 -5.49551,2.80011 z"
         inkscape:connector-curvature="0" />
    </g>
    <g
       id="g3950"
       transform="matrix(-0.19633545,0,0,0.29719274,777.19901,362.22607)">
      <path
         inkscape:connector-curvature="0"
         d="m 378.75728,708.19294 c -3.20786,-1.78752 -5.83091,-4.36346 -8.39942,-6.94512 -2.06145,-2.02983 -3.8805,-4.30775 -5.1908,-6.89744 -0.6789,-1.34179 -0.94669,-2.16733 -1.47319,-3.56683 -0.78758,-2.23257 -1.14311,-4.56814 -1.41851,-6.90773 0,0 5.13055,-2.68579 5.13055,-2.68579 l 0,0 c 0.23878,2.30535 0.53637,4.61069 1.29149,6.81579 0.52808,1.44169 0.7332,2.11763 1.41265,3.50311 1.25254,2.55405 2.96452,4.83954 5.00393,6.81881 2.62746,2.52705 5.31491,5.12456 8.75603,6.5012 0,0 -5.11273,3.364 -5.11273,3.364 z"
         id="path3936"
         style="fill:#ff2a2a;stroke:#ff2a2a;stroke-width:0.83833313;stroke-opacity:1" />
      <path
         inkscape:connector-curvature="0"
         d="m 379.67567,708.833 c -3.67874,-0.64041 -7.43828,-0.67775 -11.16223,-0.78137 -2.79932,-0.10021 -5.60037,-0.0281 -8.39974,0.0202 0,0 4.3845,-3.19778 4.3845,-3.19778 l 0,0 c 2.82658,-0.0544 5.65419,-0.12367 8.4813,-0.0521 3.91807,0.0651 7.84849,0.0973 11.74907,0.5061 0,0 -5.0529,3.50495 -5.0529,3.50495 z"
         id="path3938-0"
         style="fill:#ff2a2a;stroke:#ff2a2a;stroke-width:0.83833313;stroke-opacity:1" />
      <path
         inkscape:connector-curvature="0"
         d="m 379.48645,706.92224 c 0.13353,-2.29919 0.0907,-4.60279 0.18253,-6.90345 0.14165,-2.10844 0.46114,-4.20118 0.76275,-6.29143 0,0 5.19738,-2.55606 5.19738,-2.55606 l 0,0 c -0.29096,2.06196 -0.57406,4.12796 -0.7294,6.20534 -0.0676,2.24756 -0.0412,4.50001 0.0822,6.74549 0,0 -5.49551,2.80011 -5.49551,2.80011 z"
         id="path3940-9"
         style="fill:#ff2a2a;stroke:#ff2a2a;stroke-width:0.83833313;stroke-opacity:1" />
    </g>
    <text
       xml:space="preserve"
       style="font-size:6.02412891px;font-style:normal;font-weight:normal;line-height:125%;letter-spacing:0px;word-spacing:0px;fill:#000000;fill-opacity:1;stroke:none;font-family:Sans"
       x="725.95563"
       y="548.74359"
       id="text3979"
       sodipodi:linespacing="125%"><tspan
         sodipodi:role="line"
         id="tspan3981"
         x="725.95563"
         y="548.74359"
         style="fill:#ff2a2a">Web Tradicional</tspan></text>
    <text
       sodipodi:linespacing="125%"
       id="text3987"
       y="562.69305"
       x="687.15979"
       style="font-size:6.02412891px;font-style:normal;font-weight:normal;line-height:125%;letter-spacing:0px;word-spacing:0px;fill:#000000;fill-opacity:1;stroke:none;font-family:Sans"
       xml:space="preserve"><tspan
         style="fill:#ff2a2a"
         y="562.69305"
         x="687.15979"
         sodipodi:role="line"
         id="tspan3027">Onion Web</tspan></text>
  </g>
</svg>
